…
``` r
data %>%
  count(playlist_subgenre)
```

    ## # A tibble: 24 x 2
    ##    playlist_subgenre     n
    ##    <chr>             <int>
    ##  1 album rock         1065
    ##  2 big room           1206
    ##  3 classic rock       1296
    ##  4 dance pop          1298
    ##  5 electro house      1511
    ##  6 electropop         1408
    ##  7 gangster rap       1458
    ##  8 hard rock          1485
    ##  9 hip hop            1322
    ## 10 hip pop            1256
    ## # … with 14 more rows
…
